{
    "name": "laravel/lumen",
    "description": "The Laravel Lumen Framework.",
    "keywords": ["framework", "laravel", "lumen"],
    "license": "MIT",
    "type": "project",
    "repositories":[
        {
            "type": "vcs",
            "url": "git@gitlab-ssh.seldatdirect.com:WMS-2/user-info.git",
            "tags-path": "Tags"
        },
        {
            "type":"vcs",
            "url":"git@gitlab-ssh.seldatdirect.com:WMS-2/package-common.git",
            "tags-path": "Tags"
        }
    ],
    "require": {
        "php": ">=5.5.9",
        "laravel/lumen-framework": "5.2.*",
        "vlucas/phpdotenv": "~2.2",
        "symfony/psr-http-message-bridge": "^0.2.0",
        "zendframework/zend-diactoros": "^1.3",
        "darkaonline/swagger-lume": "1.*",
        "wms2/user-info": "1.0.*",
        "seldat/wms2":"1.0.*",
        "dingo/api": "1.0.*@dev",
        "guzzlehttp/guzzle": "~6.0",
        "tymon/jwt-auth": "0.5.*",
        "violuke/php-barcodes":"^1.0.1"
    },
    "require-dev": {
        "fzaninotto/faker": "~1.4",
        "phpunit/phpunit": "~4.0",
        "symfony/var-dumper": "^3.0",
        "mockery/mockery": "dev-master"
    },
    "autoload": {
        "psr-4": {
            "App\\": "app/"
        },
        "files": [
            "app/Support/helpers.php",
            "app/Support/constants.php",
            "app/Support/MessageCode.php",
            "app/libraries/MyHelper.php"
        ]
    },
    "autoload-dev": {
        "classmap": [
            "tests/",
            "database/"
        ]
    }
}
