{
    "openapi": "3.0.0",
    "info": {
        "title": "WMS Seldat API",
        "version": "1.0"
    },
    "servers": [
        {
            "url": "{schema}://apigw2.seldatdirect.com/qc/sip/api/core/api/rest/wms360/seldat/v1",
            "description": "Protocol parameters",
            "variables": {
                "schema": {
                    "enum": [
                        "https",
                        "http"
                    ],
                    "default": "https"
                }
            }
        }
    ],
    "paths": {
        "/authenticate": {
            "post": {
                "tags": [
                    "Authenticate"
                ],
                "requestBody": {
                    "content": {
                        "application/json": {
                            "schema": {
                                "properties": {
                                    "username": {
                                        "type": "string"
                                    },
                                    "password": {
                                        "type": "string"
                                    }
                                },
                                "type": "object",
                                "example": {
                                    "username": "citlph",
                                    "password": "Seldat@123"
                                }
                            }
                        }
                    }
                },
                "responses": {
                    "200": {
                        "description": "Return Token"
                    }
                }
            }
        },
        "/warehouses": {
            "get": {
                "tags": [
                    "Warehouse"
                ],
                "responses": {
                    "200": {
                        "description": "",
                        "content": {
                            "application/json": {
                                "schema": {
                                    "type": "array",
                                    "items": {
                                        "$ref": "#/components/schemas/warehouse"
                                    }
                                }
                            }
                        }
                    },
                    "400": {
                        "description": "Bad Request"
                    }
                },
                "security": [
                    {
                        "token": []
                    }
                ]
            }
        },
        "/warehouses/{whs_id}": {
            "get": {
                "tags": [
                    "Warehouse"
                ],
                "parameters": [
                    {
                        "name": "whs_id",
                        "in": "path",
                        "description": "ID of warehouse",
                        "required": true,
                        "schema": {
                            "type": "integer",
                            "default": 1
                        }
                    }
                ],
                "responses": {
                    "200": {
                        "description": "",
                        "content": {
                            "application/json": {
                                "schema": {
                                    "$ref": "#/components/schemas/warehouse_detail"
                                }
                            }
                        }
                    },
                    "400": {
                        "description": "Bad Request"
                    }
                },
                "security": [
                    {
                        "token": []
                    }
                ]
            }
        },
        "/warehouses/{whs_id}/customers": {
            "get": {
                "tags": [
                    "Customer"
                ],
                "parameters": [
                    {
                        "name": "whs_id",
                        "in": "path",
                        "description": "ID of warehouse",
                        "required": true,
                        "schema": {
                            "type": "integer",
                            "default": 1
                        }
                    }
                ],
                "responses": {
                    "200": {
                        "description": "",
                        "content": {
                            "application/json": {
                                "schema": {
                                    "type": "array",
                                    "items": {
                                        "$ref": "#/components/schemas/customer"
                                    }
                                }
                            }
                        }
                    },
                    "400": {
                        "description": "Bad Request"
                    }
                },
                "security": [
                    {
                        "token": []
                    }
                ]
            }
        },
        "/customers/{cus_id}": {
            "get": {
                "tags": [
                    "Customer"
                ],
                "parameters": [
                    {
                        "name": "cus_id",
                        "in": "path",
                        "description": "ID of customer",
                        "required": true,
                        "schema": {
                            "type": "integer",
                            "default": 1
                        }
                    }
                ],
                "responses": {
                    "200": {
                        "description": "",
                        "content": {
                            "application/json": {
                                "schema": {
                                    "$ref": "#/components/schemas/customer_detail"
                                }
                            }
                        }
                    },
                    "400": {
                        "description": "Bad Request"
                    }
                },
                "security": [
                    {
                        "token": []
                    }
                ]
            }
        },
        "/customers/{cus_id}/items": {
            "get": {
                "tags": [
                    "Item"
                ],
                "parameters": [
                    {
                        "name": "cus_id",
                        "in": "path",
                        "description": "ID of customer",
                        "required": true,
                        "schema": {
                            "type": "integer",
                            "default": 1
                        }
                    }
                ],
                "responses": {
                    "200": {
                        "description": "",
                        "content": {
                            "application/json": {
                                "schema": {
                                    "type": "array",
                                    "items": {
                                        "$ref": "#/components/schemas/item"
                                    }
                                }
                            }
                        }
                    },
                    "400": {
                        "description": "Bad Request"
                    }
                },
                "security": [
                    {
                        "token": []
                    }
                ]
            }
        },
        "/customers/{cus_id}/items/{item_id}": {
            "get": {
                "tags": [
                    "Item"
                ],
                "parameters": [
                    {
                        "name": "cus_id",
                        "in": "path",
                        "description": "ID of customer",
                        "required": true,
                        "schema": {
                            "type": "integer",
                            "default": 1
                        }
                    },
                    {
                        "name": "item_id",
                        "in": "path",
                        "description": "ID of item",
                        "required": true,
                        "schema": {
                            "type": "integer",
                            "default": 1
                        }
                    }
                ],
                "responses": {
                    "200": {
                        "description": "",
                        "content": {
                            "application/json": {
                                "schema": {
                                    "$ref": "#/components/schemas/item"
                                }
                            }
                        }
                    },
                    "400": {
                        "description": "Bad Request"
                    }
                },
                "security": [
                    {
                        "token": []
                    }
                ]
            }
        },
        "/warehouses/{whs_id}/customers/{cus_id}/orders": {
            "get": {
                "tags": [
                    "Order"
                ],
                "parameters": [
                    {
                        "name": "cus_id",
                        "in": "path",
                        "description": "ID of customer",
                        "required": true,
                        "schema": {
                            "type": "integer",
                            "default": 1
                        }
                    },
                    {
                        "name": "whs_id",
                        "in": "path",
                        "description": "ID of warehouse",
                        "required": true,
                        "schema": {
                            "type": "integer",
                            "default": 1
                        }
                    }
                ],
                "responses": {
                    "400": {
                        "description": "Bad Request"
                    }
                },
                "security": [
                    {
                        "token": []
                    }
                ]
            },
            "post": {
                "tags": [
                    "Order"
                ],
                "parameters": [
                    {
                        "name": "whs_id",
                        "in": "path",
                        "description": "ID of warehouse",
                        "required": true,
                        "schema": {
                            "type": "integer",
                            "default": 1
                        }
                    },
                    {
                        "name": "cus_id",
                        "in": "path",
                        "description": "ID of customer",
                        "required": true,
                        "schema": {
                            "type": "integer",
                            "default": 1
                        }
                    }
                ],
                "requestBody": {
                    "description": "Order information",
                    "required": true,
                    "content": {
                        "application/json": {
                            "schema": {
                                "$ref": "#/components/schemas/body_insert_order"
                            }
                        }
                    }
                },
                "responses": {
                    "201": {
                        "description": "",
                        "content": {
                            "application/json": {
                                "schema": {},
                                "example": {
                                    "msg": "Insert order successfully"
                                }
                            }
                        }
                    },
                    "400": {
                        "description": "Bad Request"
                    }
                },
                "security": [
                    {
                        "token": []
                    }
                ]
            }
        },
        "/warehouses/{whs_id}/customers/{cus_id}/orders/{order_id}": {
            "get": {
                "tags": [
                    "Order"
                ],
                "parameters": [
                    {
                        "name": "cus_id",
                        "in": "path",
                        "description": "ID of customer",
                        "required": true,
                        "schema": {
                            "type": "integer",
                            "default": 1
                        }
                    },
                    {
                        "name": "whs_id",
                        "in": "path",
                        "description": "ID of warehouse",
                        "required": true,
                        "schema": {
                            "type": "integer",
                            "default": 1
                        }
                    },
                    {
                        "name": "order_id",
                        "in": "path",
                        "description": "ID of order_hdr",
                        "required": true,
                        "schema": {
                            "type": "integer",
                            "default": 465
                        }
                    }
                ],
                "responses": {
                    "400": {
                        "description": "Bad Request"
                    }
                },
                "security": [
                    {
                        "token": []
                    }
                ]
            }
        },
        "/warehouses/{whs_id}/customers/{cus_id}/orders/{order_id}/cancel": {
            "patch": {
                "tags": [
                    "Order"
                ],
                "parameters": [
                    {
                        "name": "cus_id",
                        "in": "path",
                        "description": "ID of customer",
                        "required": true,
                        "schema": {
                            "type": "integer",
                            "default": 1
                        }
                    },
                    {
                        "name": "whs_id",
                        "in": "path",
                        "description": "ID of warehouse",
                        "required": true,
                        "schema": {
                            "type": "integer",
                            "default": 1
                        }
                    },
                    {
                        "name": "order_id",
                        "in": "path",
                        "description": "ID of order_hdr",
                        "required": true,
                        "schema": {
                            "type": "integer",
                            "default": 465
                        }
                    }
                ],
                "responses": {
                    "400": {
                        "description": "Bad Request"
                    }
                },
                "security": [
                    {
                        "token": []
                    }
                ]
            }
        },
        "/warehouses/{whs_id}/customers/{cus_id}/asns": {
            "get": {
                "tags": [
                    "Asn"
                ],
                "parameters": [
                    {
                        "name": "cus_id",
                        "in": "path",
                        "description": "ID of customer",
                        "required": true,
                        "schema": {
                            "type": "integer",
                            "default": 1
                        }
                    },
                    {
                        "name": "whs_id",
                        "in": "path",
                        "description": "ID of warehouse",
                        "required": true,
                        "schema": {
                            "type": "integer",
                            "default": 1
                        }
                    }
                ],
                "responses": {
                    "400": {
                        "description": "Bad Request"
                    }
                },
                "security": [
                    {
                        "token": []
                    }
                ]
            }
        }
    },
    "components": {
        "schemas": {
            "warehouse": {
                "title": "Warehouse",
                "description": "Warehouse information",
                "properties": {
                    "whs_id": {
                        "type": "integer"
                    },
                    "code": {
                        "type": "string"
                    },
                    "name": {
                        "type": "string"
                    }
                },
                "type": "object"
            },
            "address": {
                "title": "Address",
                "description": "Shipping address or billing address",
                "properties": {
                    "address_type": {
                        "type": "string"
                    },
                    "address_line_1": {
                        "type": "string"
                    },
                    "address_line_2": {
                        "type": "string"
                    },
                    "city": {
                        "type": "string"
                    },
                    "state": {
                        "type": "string"
                    },
                    "zip": {
                        "type": "integer"
                    },
                    "country": {
                        "type": "string"
                    }
                },
                "type": "object"
            },
            "contact": {
                "title": "Contact",
                "description": "Contact information",
                "properties": {
                    "first_name": {
                        "type": "string"
                    },
                    "last_name": {
                        "type": "string"
                    },
                    "position": {
                        "type": "string"
                    },
                    "email": {
                        "type": "string"
                    },
                    "phone": {
                        "type": "integer"
                    },
                    "extension": {
                        "type": "integer"
                    },
                    "mobile": {
                        "type": "string"
                    }
                },
                "type": "object"
            },
            "warehouse_detail": {
                "title": "Warehouse Detail",
                "description": "Detail of a warehouse",
                "properties": {
                    "whs_id": {
                        "type": "integer"
                    },
                    "code": {
                        "type": "string"
                    },
                    "name": {
                        "type": "string"
                    },
                    "addresses": {
                        "type": "array",
                        "items": {
                            "$ref": "#/components/schemas/address"
                        }
                    },
                    "contacts": {
                        "type": "array",
                        "items": {
                            "$ref": "#/components/schemas/contact"
                        }
                    }
                },
                "type": "object"
            },
            "customer": {
                "title": "Customer",
                "description": "Customer information",
                "properties": {
                    "cus_id": {
                        "type": "integer"
                    },
                    "code": {
                        "type": "string"
                    },
                    "name": {
                        "type": "string"
                    },
                    "description": {
                        "type": "string"
                    }
                },
                "type": "object"
            },
            "courier": {
                "title": "Courier",
                "description": "Courier information",
                "properties": {
                    "name": {
                        "type": "string"
                    },
                    "number": {
                        "type": "integer"
                    },
                    "type": {
                        "type": "string"
                    }
                },
                "type": "object"
            },
            "customer_detail": {
                "title": "Customer Detail",
                "description": "Customer Detail",
                "properties": {
                    "cus_id": {
                        "type": "integer"
                    },
                    "code": {
                        "type": "string"
                    },
                    "name": {
                        "type": "string"
                    },
                    "description": {
                        "type": "string"
                    },
                    "addresses": {
                        "type": "array",
                        "items": {
                            "$ref": "#/components/schemas/address"
                        }
                    },
                    "contacts": {
                        "type": "array",
                        "items": {
                            "$ref": "#/components/schemas/contact"
                        }
                    },
                    "warehouses": {
                        "type": "array",
                        "items": {
                            "$ref": "#/components/schemas/warehouse"
                        }
                    },
                    "picking_algorithm": {
                        "type": "string",
                        "enum": [
                            "FIFO",
                            "LIFO",
                            "FEFO"
                        ]
                    },
                    "couriers": {
                        "type": "array",
                        "items": {
                            "$ref": "#/components/schemas/courier"
                        }
                    }
                },
                "type": "object"
            },
            "item": {
                "title": "Item List",
                "description": "Item List",
                "properties": {
                    "item_id": {
                        "type": "integer"
                    },
                    "cus_id": {
                        "type": "string"
                    },
                    "sku": {
                        "type": "string"
                    },
                    "size": {
                        "type": "string"
                    },
                    "color": {
                        "type": "string"
                    },
                    "description": {
                        "type": "string"
                    },
                    "uom": {
                        "type": "string"
                    },
                    "pack": {
                        "type": "string"
                    },
                    "upc": {
                        "type": "string"
                    },
                    "length": {
                        "type": "string"
                    },
                    "width": {
                        "type": "string"
                    },
                    "height": {
                        "type": "string"
                    },
                    "dim_uom": {
                        "type": "string"
                    },
                    "net_weight": {
                        "type": "string"
                    },
                    "gross_weight": {
                        "type": "string"
                    },
                    "weight_uom": {
                        "type": "string"
                    },
                    "category": {
                        "type": "string"
                    }
                },
                "type": "object"
            },
            "body_insert_order_contact": {
                "properties": {
                    "contact_type": {
                        "type": "string",
                        "example": "Receiver"
                    },
                    "name": {
                        "type": "string",
                        "example": "AVRIO LOGISTICS"
                    },
                    "first_name": {
                        "type": "string",
                        "example": "AVRIO"
                    },
                    "last_name": {
                        "type": "string",
                        "example": "LOGISTICS"
                    },
                    "phone": {
                        "type": "string",
                        "example": "0901456321"
                    },
                    "extension": {
                        "type": "string",
                        "example": "test extension"
                    },
                    "mobile": {
                        "type": "string",
                        "example": "0901456321"
                    },
                    "email": {
                        "type": "string",
                        "example": "tuyen.tran@seldatinc.com"
                    }
                },
                "type": "object"
            },
            "body_insert_order_address": {
                "properties": {
                    "address_type": {
                        "type": "string",
                        "example": "ShipTo"
                    },
                    "address_line_1": {
                        "type": "string",
                        "example": "549 MILL ROAD"
                    },
                    "address_line_2": {
                        "type": "string",
                        "example": "549 MILL ROAD"
                    },
                    "city": {
                        "type": "string",
                        "example": "EDISON"
                    },
                    "country": {
                        "type": "string",
                        "example": "US"
                    },
                    "state": {
                        "type": "string",
                        "example": "NJ"
                    },
                    "mobile": {
                        "type": "string",
                        "example": "0901456321"
                    },
                    "zip": {
                        "type": "string",
                        "example": "08837"
                    }
                },
                "type": "object"
            },
            "body_insert_order_item": {
                "properties": {
                    "sku": {
                        "type": "string",
                        "example": "XANG-20181108-004"
                    },
                    "size": {
                        "type": "string",
                        "example": "NA"
                    },
                    "color": {
                        "type": "string",
                        "example": "NA"
                    },
                    "lot": {
                        "type": "string",
                        "example": "NA"
                    },
                    "description": {
                        "type": "string",
                        "example": "CORNETTO OREO ANZ MP4 1X440ML 12345"
                    },
                    "qty": {
                        "type": "string",
                        "example": "50"
                    },
                    "uom": {
                        "type": "string",
                        "example": "PC"
                    },
                    "pack": {
                        "type": "string",
                        "example": "10"
                    },
                    "tracking_number": {
                        "type": "string",
                        "example": "T00001"
                    }
                },
                "type": "object"
            },
            "body_insert_order": {
                "title": "Insert Order",
                "description": "Insert Order",
                "properties": {
                    "order_type": {
                        "type": "string",
                        "enum": [
                            "Bulk",
                            "Retail",
                            "Ecom"
                        ],
                        "example": "Bulk"
                    },
                    "order_number": {
                        "type": "string",
                        "example": "T00001"
                    },
                    "po_num": {
                        "type": "string",
                        "example": "T00001"
                    },
                    "order_ref": {
                        "type": "string",
                        "example": "181116"
                    },
                    "rush_priority": {
                        "type": "integer",
                        "enum": [
                            1,
                            2,
                            3,
                            4,
                            5
                        ],
                        "example": 1
                    },
                    "order_date": {
                        "type": "string",
                        "example": "2018-11-16"
                    },
                    "ship_date": {
                        "type": "string",
                        "example": "2018-11-16"
                    },
                    "additional_information": {
                        "type": "string",
                        "example": "something note to add for this order"
                    },
                    "special_instruction": {
                        "type": "string",
                        "example": "intruction information"
                    },
                    "carrier": {
                        "type": "string",
                        "example": "John"
                    },
                    "delivery_service": {
                        "type": "string",
                        "example": ""
                    },
                    "consignee_signature": {
                        "type": "string",
                        "example": ""
                    },
                    "pick_ref": {
                        "type": "string",
                        "example": "test pick ref"
                    },
                    "dept_ref": {
                        "type": "string",
                        "example": "test dept ref"
                    },
                    "items": {
                        "type": "array",
                        "items": {
                            "$ref": "#/components/schemas/body_insert_order_item"
                        }
                    },
                    "contacts": {
                        "type": "array",
                        "items": {
                            "$ref": "#/components/schemas/body_insert_order_contact"
                        }
                    },
                    "addresses": {
                        "type": "array",
                        "items": {
                            "$ref": "#/components/schemas/body_insert_order_address"
                        }
                    }
                },
                "type": "object"
            },
            "error": {
                "properties": {
                    "code": {
                        "type": "integer"
                    },
                    "message": {
                        "type": "string"
                    }
                },
                "type": "object"
            }
        },
        "securitySchemes": {
            "token": {
                "type": "apiKey",
                "name": "Authorization",
                "in": "header"
            }
        }
    },
    "tags": [
        {
            "name": "Authenticate",
            "description": "Get your token to access api"
        },
        {
            "name": "Warehouse",
            "description": "Information about your warehouse"
        },
        {
            "name": "Customer",
            "description": "Information about your customer"
        },
        {
            "name": "Item",
            "description": "Information about your item"
        },
        {
            "name": "Order",
            "description": "Information about your order"
        }
    ]
}